%YAML 1.1
%TAG !u! tag:unity3d.com,2011:
--- !u!114 &11400000
MonoBehaviour:
  m_ObjectHideFlags: 0
  m_CorrespondingSourceObject: {fileID: 0}
  m_PrefabInstance: {fileID: 0}
  m_PrefabAsset: {fileID: 0}
  m_GameObject: {fileID: 0}
  m_Enabled: 1
  m_EditorHideFlags: 0
  m_Script: {fileID: 11500000, guid: 6ffcda556a0e82f45b0f26e16724023a, type: 3}
  m_Name: knife
  m_EditorClassIdentifier: 
  itemName: Knife
  sprite: {fileID: 21300000, guid: 3fed017f0c9bd404ea93c6a0abdca483, type: 3}
  value: 5
  damage: 10
  cooldownTime: 0.5
  damageRadius: 0.5
