%YAML 1.1
%TAG !u! tag:unity3d.com,2011:
--- !u!114 &11400000
MonoBehaviour:
  m_ObjectHideFlags: 0
  m_CorrespondingSourceObject: {fileID: 0}
  m_PrefabInstance: {fileID: 0}
  m_PrefabAsset: {fileID: 0}
  m_GameObject: {fileID: 0}
  m_Enabled: 1
  m_EditorHideFlags: 0
  m_Script: {fileID: 11500000, guid: 73470dac94862f94f82063dd7913594e, type: 3}
  m_Name: Elf
  m_EditorClassIdentifier: 
  characterName: Elf
  characterSprite: {fileID: 21300000, guid: 3fb4e26c238b4d340becbbe1adc91a23, type: 3}
  maxHealth: 100
  moveSpeed: 5
  armorRate: 1
  damageRate: 1.5
