%YAML 1.1
%TAG !u! tag:unity3d.com,2011:
--- !u!114 &11400000
MonoBehaviour:
  m_ObjectHideFlags: 0
  m_CorrespondingSourceObject: {fileID: 0}
  m_PrefabInstance: {fileID: 0}
  m_PrefabAsset: {fileID: 0}
  m_GameObject: {fileID: 0}
  m_Enabled: 1
  m_EditorHideFlags: 0
  m_Script: {fileID: 11500000, guid: 73470dac94862f94f82063dd7913594e, type: 3}
  m_Name: Ogre
  m_EditorClassIdentifier: 
  characterName: Ogre
  characterSprite: {fileID: 21300000, guid: 5ef48b1f46e06174f9e43253f7161ecb, type: 3}
  maxHealth: 500
  moveSpeed: 3
  armorRate: 2
  damageRate: 10
