%YAML 1.1
%TAG !u! tag:unity3d.com,2011:
--- !u!114 &11400000
MonoBehaviour:
  m_ObjectHideFlags: 0
  m_CorrespondingSourceObject: {fileID: 0}
  m_PrefabInstance: {fileID: 0}
  m_PrefabAsset: {fileID: 0}
  m_GameObject: {fileID: 0}
  m_Enabled: 1
  m_EditorHideFlags: 0
  m_Script: {fileID: 11500000, guid: 72f2b32d99ecb40429d53c02acf43ed0, type: 3}
  m_Name: bloody_skull
  m_EditorClassIdentifier: 
  itemName: Bloody Skull
  sprite: {fileID: 21300000, guid: 8fdd587f3546c2543b8a987e72446720, type: 3}
  value: 0
  healthRestore: 0
  healthIncrease: 0
  moveSpeedIncrease: 0
  armorRateIncrease: 0
  damageRateIncrease: 1
